week2/week2_babySoC/vcd/tb_minimal.vcd
$date
	Tue Sep 30 21:00:50 2025
$end
$version
	Icarus Verilog
$end
$timescale
	1ps
$end
$scope module tb_minimal $end
$var wire 1 ! pll_clk $end
$var wire 1 " gated_clk $end
$var wire 1 # dac_out $end
$var reg 10 $ dac_input [9:0] $end
$var reg 1 % enb_cp $end
$var reg 1 & enb_vco $end
$var reg 1 ' func_en $end
$var reg 1 ( gating_override $end
$var reg 1 ) pwr_en $end
$var reg 1 * ref_clk $end
$var reg 1 + vco_in $end
$var real 1 , vrefh $end
$var real 1 - vrefl $end
$scope module u_clk_gate $end
$var wire 1 ' func_en $end
$var wire 1 " gated_clk $end
$var wire 1 ( gating_override $end
$var wire 1 ) pwr_en $end
$var wire 1 ! free_clk $end
$upscope $end
$scope module u_dac $end
$var wire 10 . D [9:0] $end
$var wire 1 / EN $end
$var wire 11 0 Dext [10:0] $end
$var real 1 1 NaN $end
$var real 1 2 OUT $end
$var real 1 3 VREFH $end
$var real 1 4 VREFL $end
$upscope $end
$scope module u_pll $end
$var wire 1 % ENb_CP $end
$var wire 1 & ENb_VCO $end
$var wire 1 * REF $end
$var wire 1 + VCO_IN $end
$var reg 1 ! CLK $end
$var real 1 5 lastedge $end
$var real 1 6 period $end
$var real 1 7 refpd $end
$upscope $end
$upscope $end
$enddefinitions $end
$comment Show the parameter values. $end
$dumpall
$end
#0
$dumpvars
r0 7
r25 6
r0 5
r0 4
r1.2 3
r0 2
rnan 1
b0 0
1/
b0 .
r0 -
r1.2 ,
0+
0*
1)
0(
0'
1&
0%
b0 $
0#
0"
0!
$end
#10000
r10 5
1*
#12500
1"
1!
#20000
0*
#25000
0"
0!
#30000
r30 5
r2.5 6
r20 7
1*
#37500
1"
1!
#38750
0"
0!
#40000
1"
1!
0*
#41250
0"
0!
#42500
1"
1!
#43750
0"
0!
#45000
1"
1!
#46250
0"
0!
#47500
1"
1!
#48750
0"
0!
#50000
1"
1!
r50 5
1*
1'
#51250
0"
0!
#52500
1"
1!
#53750
0"
0!
#55000
1"
1!
#56250
0"
0!
#57500
1"
1!
#58750
0"
0!
#60000
1"
1!
0*
#61250
0"
0!
#62500
1"
1!
#63750
0"
0!
#65000
1"
1!
#66250
0"
0!
#67500
1"
1!
#68750
0"
0!
#70000
1"
1!
r70 5
1*
#71250
0"
0!
#72500
1"
1!
#73750
0"
0!
#75000
1"
1!
#76250
0"
0!
#77500
1"
1!
#78750
0"
0!
#80000
1"
1!
0*
#81250
0"
0!
#82500
1"
1!
#83750
0"
0!
#85000
1"
1!
#86250
0"
0!
#87500
1"
1!
#88750
0"
0!
#90000
1"
1!
r90 5
1*
#91250
0"
0!
#92500
1"
1!
#93750
0"
0!
#95000
1"
1!
#96250
0"
0!
#97500
1"
1!
#98750
0"
0!
#100000
1"
1!
0*
#101250
0"
0!
#102500
1"
1!
#103750
0"
0!
#105000
1"
1!
#106250
0"
0!
#107500
1"
1!
#108750
0"
0!
#110000
1"
1!
r110 5
1*
#111250
0"
0!
#112500
1"
1!
#113750
0"
0!
#115000
1"
1!
#116250
0"
0!
#117500
1"
1!
#118750
0"
0!
#120000
1"
1!
0*
#121250
0"
0!
#122500
1"
1!
#123750
0"
0!
#125000
1"
1!
#126250
0"
0!
#127500
1"
1!
#128750
0"
0!
#130000
1"
1!
r130 5
1*
#131250
0"
0!
#132500
1"
1!
#133750
0"
0!
#135000
1"
1!
#136250
0"
0!
#137500
1"
1!
#138750
0"
0!
#140000
1"
1!
0*
#141250
0"
0!
#142500
1"
1!
#143750
0"
0!
#145000
1"
1!
#146250
0"
0!
#147500
1"
1!
#148750
0"
0!
#150000
1"
1!
1#
r0.6005865102639296 2
r150 5
1*
b1000000000 0
b1000000000 $
b1000000000 .
#151250
0"
0!
#152500
1"
1!
#153750
0"
0!
#155000
1"
1!
#156250
0"
0!
#157500
1"
1!
#158750
0"
0!
#160000
1"
1!
0*
#161250
0"
0!
#162500
1"
1!
#163750
0"
0!
#165000
1"
1!
#166250
0"
0!
#167500
1"
1!
#168750
0"
0!
#170000
1"
1!
r170 5
1*
#171250
0"
0!
#172500
1"
1!
#173750
0"
0!
#175000
1"
1!
#176250
0"
0!
#177500
1"
1!
#178750
0"
0!
#180000
1"
1!
0*
#181250
0"
0!
#182500
1"
1!
#183750
0"
0!
#185000
1"
1!
#186250
0"
0!
#187500
1"
1!
#188750
0"
0!
#190000
1"
1!
r190 5
1*
#191250
0"
0!
#192500
1"
1!
#193750
0"
0!
#195000
1"
1!
#196250
0"
0!
#197500
1"
1!
#198750
0"
0!
#200000
1"
1!
0*
#201250
0"
0!
#202500
1"
1!
#203750
0"
0!
#205000
1"
1!
#206250
0"
0!
#207500
1"
1!
#208750
0"
0!
#210000
1"
1!
r210 5
1*
#211250
0"
0!
#212500
1"
1!
#213750
0"
0!
#215000
1"
1!
#216250
0"
0!
#217500
1"
1!
#218750
0"
0!
#220000
1"
1!
0*
#221250
0"
0!
#222500
1"
1!
#223750
0"
0!
#225000
1"
1!
#226250
0"
0!
#227500
1"
1!
#228750
0"
0!
#230000
1"
1!
r230 5
1*
#231250
0"
0!
#232500
1"
1!
#233750
0"
0!
#235000
1"
1!
#236250
0"
0!
#237500
1"
1!
#238750
0"
0!
#240000
1"
1!
0*
#241250
0"
0!
#242500
1"
1!
#243750
0"
0!
#245000
1"
1!
#246250
0"
0!
#247500
1"
1!
#248750
0"
0!
#250000
1"
1!
r250 5
1*
#251250
0"
0!
#252500
1"
1!
#253750
0"
0!
#255000
1"
1!
#256250
0"
0!
#257500
1"
1!
#258750
0"
0!
#260000
1"
1!
0*
#261250
0"
0!
#262500
1"
1!
#263750
0"
0!
#265000
1"
1!
#266250
0"
0!
#267500
1"
1!
#268750
0"
0!
#270000
1"
1!
r270 5
1*
#271250
0"
0!
#272500
1"
1!
#273750
0"
0!
#275000
1"
1!
#276250
0"
0!
#277500
1"
1!
#278750
0"
0!
#280000
1"
1!
0*
#281250
0"
0!
#282500
1"
1!
#283750
0"
0!
#285000
1"
1!
#286250
0"
0!
#287500
1"
1!
#288750
0"
0!
#290000
1"
1!
r290 5
1*
#291250
0"
0!
#292500
1"
1!
#293750
0"
0!
#295000
1"
1!
#296250
0"
0!
#297500
1"
1!
#298750
0"
0!
#300000
1"
1!
0*
#301250
0"
0!
#302500
1"
1!
#303750
0"
0!
#305000
1"
1!
#306250
0"
0!
#307500
1"
1!
#308750
0"
0!
#310000
1"
1!
r310 5
1*
#311250
0"
0!
#312500
1"
1!
#313750
0"
0!
#315000
1"
1!
#316250
0"
0!
#317500
1"
1!
#318750
0"
0!
#320000
1"
1!
0*
#321250
0"
0!
#322500
1"
1!
#323750
0"
0!
#325000
1"
1!
#326250
0"
0!
#327500
1"
1!
#328750
0"
0!
#330000
1"
1!
r330 5
1*
#331250
0"
0!
#332500
1"
1!
#333750
0"
0!
#335000
1"
1!
#336250
0"
0!
#337500
1"
1!
#338750
0"
0!
#340000
1"
1!
0*
#341250
0"
0!
#342500
1"
1!
#343750
0"
0!
#345000
1"
1!
#346250
0"
0!
#347500
1"
1!
#348750
0"
0!
#350000
1"
1!
r0.9008797653958944 2
r350 5
1*
b1100000000 0
b1100000000 $
b1100000000 .
#351250
0"
0!
#352500
1"
1!
#353750
0"
0!
#355000
1"
1!
#356250
0"
0!
#357500
1"
1!
#358750
0"
0!
#360000
1"
1!
0*
#361250
0"
0!
#362500
1"
1!
#363750
0"
0!
#365000
1"
1!
#366250
0"
0!
#367500
1"
1!
#368750
0"
0!
#370000
1"
1!
r370 5
1*
#371250
0"
0!
#372500
1"
1!
#373750
0"
0!
#375000
1"
1!
#376250
0"
0!
#377500
1"
1!
#378750
0"
0!
#380000
1"
1!
0*
#381250
0"
0!
#382500
1"
1!
#383750
0"
0!
#385000
1"
1!
#386250
0"
0!
#387500
1"
1!
#388750
0"
0!
#390000
1"
1!
r390 5
1*
#391250
0"
0!
#392500
1"
1!
#393750
0"
0!
#395000
1"
1!
#396250
0"
0!
#397500
1"
1!
#398750
0"
0!
#400000
1"
1!
0*
#401250
0"
0!
#402500
1"
1!
#403750
0"
0!
#405000
1"
1!
#406250
0"
0!
#407500
1"
1!
#408750
0"
0!
#410000
1"
1!
r410 5
1*
#411250
0"
0!
#412500
1"
1!
#413750
0"
0!
#415000
1"
1!
#416250
0"
0!
#417500
1"
1!
#418750
0"
0!
#420000
1"
1!
0*
#421250
0"
0!
#422500
1"
1!
#423750
0"
0!
#425000
1"
1!
#426250
0"
0!
#427500
1"
1!
#428750
0"
0!
#430000
1"
1!
r430 5
1*
#431250
0"
0!
#432500
1"
1!
#433750
0"
0!
#435000
1"
1!
#436250
0"
0!
#437500
1"
1!
#438750
0"
0!
#440000
1"
1!
0*
#441250
0"
0!
#442500
1"
1!
#443750
0"
0!
#445000
1"
1!
#446250
0"
0!
#447500
1"
1!
#448750
0"
0!
#450000
1"
1!
r450 5
1*
#451250
0"
0!
#452500
1"
1!
#453750
0"
0!
#455000
1"
1!
#456250
0"
0!
#457500
1"
1!
#458750
0"
0!
#460000
1"
1!
0*
#461250
0"
0!
#462500
1"
1!
#463750
0"
0!
#465000
1"
1!
#466250
0"
0!
#467500
1"
1!
#468750
0"
0!
#470000
1"
1!
r470 5
1*
#471250
0"
0!
#472500
1"
1!
#473750
0"
0!
#475000
1"
1!
#476250
0"
0!
#477500
1"
1!
#478750
0"
0!
#480000
1"
1!
0*
#481250
0"
0!
#482500
1"
1!
#483750
0"
0!
#485000
1"
1!
#486250
0"
0!
#487500
1"
1!
#488750
0"
0!
#490000
1"
1!
r490 5
1*
#491250
0"
0!
#492500
1"
1!
#493750
0"
0!
#495000
1"
1!
#496250
0"
0!
#497500
1"
1!
#498750
0"
0!
#500000
1"
1!
0*
#501250
0"
0!
#502500
1"
1!
#503750
0"
0!
#505000
1"
1!
#506250
0"
0!
#507500
1"
1!
#508750
0"
0!
#510000
1"
1!
r510 5
1*
#511250
0"
0!
#512500
1"
1!
#513750
0"
0!
#515000
1"
1!
#516250
0"
0!
#517500
1"
1!
#518750
0"
0!
#520000
1"
1!
0*
#521250
0"
0!
#522500
1"
1!
#523750
0"
0!
#525000
1"
1!
#526250
0"
0!
#527500
1"
1!
#528750
0"
0!
#530000
1"
1!
r530 5
1*
#531250
0"
0!
#532500
1"
1!
#533750
0"
0!
#535000
1"
1!
#536250
0"
0!
#537500
1"
1!
#538750
0"
0!
#540000
1"
1!
0*
#541250
0"
0!
#542500
1"
1!
#543750
0"
0!
#545000
1"
1!
#546250
0"
0!
#547500
1"
1!
#548750
0"
0!
#550000
1"
1!
r550 5
1*
#551250
0"
0!
#552500
1"
1!
#553750
0"
0!
#555000
1"
1!
#556250
0"
0!
#557500
1"
1!
#558750
0"
0!
#560000
1"
1!
0*
#561250
0"
0!
#562500
1"
1!
#563750
0"
0!
#565000
1"
1!
#566250
0"
0!
#567500
1"
1!
#568750
0"
0!
#570000
1"
1!
r570 5
1*
#571250
0"
0!
#572500
1"
1!
#573750
0"
0!
#575000
1"
1!
#576250
0"
0!
#577500
1"
1!
#578750
0"
0!
#580000
1"
1!
0*
#581250
0"
0!
#582500
1"
1!
#583750
0"
0!
#585000
1"
1!
#586250
0"
0!
#587500
1"
1!
#588750
0"
0!
#590000
1"
1!
r590 5
1*
#591250
0"
0!
#592500
1"
1!
#593750
0"
0!
#595000
1"
1!
#596250
0"
0!
#597500
1"
1!
#598750
0"
0!
#600000
1"
1!
0*
#601250
0"
0!
#602500
1"
1!
#603750
0"
0!
#605000
1"
1!
#606250
0"
0!
#607500
1"
1!
#608750
0"
0!
#610000
1"
1!
r610 5
1*
#611250
0"
0!
#612500
1"
1!
#613750
0"
0!
#615000
1"
1!
#616250
0"
0!
#617500
1"
1!
#618750
0"
0!
#620000
1"
1!
0*
#621250
0"
0!
#622500
1"
1!
#623750
0"
0!
#625000
1"
1!
#626250
0"
0!
#627500
1"
1!
#628750
0"
0!
#630000
1"
1!
r630 5
1*
#631250
0"
0!
#632500
1"
1!
#633750
0"
0!
#635000
1"
1!
#636250
0"
0!
#637500
1"
1!
#638750
0"
0!
#640000
1"
1!
0*
#641250
0"
0!
#642500
1"
1!
#643750
0"
0!
#645000
1"
1!
#646250
0"
0!
#647500
1"
1!
#648750
0"
0!
#650000
1"
1!
r1.2 2
r650 5
1*
b1111111111 0
b1111111111 $
b1111111111 .
#651250
0"
0!
#652500
1"
1!
#653750
0"
0!
#655000
1"
1!
#656250
0"
0!
#657500
1"
1!
#658750
0"
0!
#660000
1"
1!
0*
#661250
0"
0!
#662500
1"
1!
#663750
0"
0!
#665000
1"
1!
#666250
0"
0!
#667500
1"
1!
#668750
0"
0!
#670000
1"
1!
r670 5
1*
#671250
0"
0!
#672500
1"
1!
#673750
0"
0!
#675000
1"
1!
#676250
0"
0!
#677500
1"
1!
#678750
0"
0!
#680000
1"
1!
0*
#681250
0"
0!
#682500
1"
1!
#683750
0"
0!
#685000
1"
1!
#686250
0"
0!
#687500
1"
1!
#688750
0"
0!
#690000
1"
1!
r690 5
1*
#691250
0"
0!
#692500
1"
1!
#693750
0"
0!
#695000
1"
1!
#696250
0"
0!
#697500
1"
1!
#698750
0"
0!
#700000
1"
1!
0*
#701250
0"
0!
#702500
1"
1!
#703750
0"
0!
#705000
1"
1!
#706250
0"
0!
#707500
1"
1!
#708750
0"
0!
#710000
1"
1!
r710 5
1*
#711250
0"
0!
#712500
1"
1!
#713750
0"
0!
#715000
1"
1!
#716250
0"
0!
#717500
1"
1!
#718750
0"
0!
#720000
1"
1!
0*
#721250
0"
0!
#722500
1"
1!
#723750
0"
0!
#725000
1"
1!
#726250
0"
0!
#727500
1"
1!
#728750
0"
0!
#730000
1"
1!
r730 5
1*
#731250
0"
0!
#732500
1"
1!
#733750
0"
0!
#735000
1"
1!
#736250
0"
0!
#737500
1"
1!
#738750
0"
0!
#740000
1"
1!
0*
#741250
0"
0!
#742500
1"
1!
#743750
0"
0!
#745000
1"
1!
#746250
0"
0!
#747500
1"
1!
#748750
0"
0!
#750000
1"
1!
r750 5
1*
#751250
0"
0!
#752500
1"
1!
#753750
0"
0!
#755000
1"
1!
#756250
0"
0!
#757500
1"
1!
#758750
0"
0!
#760000
1"
1!
0*
#761250
0"
0!
#762500
1"
1!
#763750
0"
0!
#765000
1"
1!
#766250
0"
0!
#767500
1"
1!
#768750
0"
0!
#770000
1"
1!
r770 5
1*
#771250
0"
0!
#772500
1"
1!
#773750
0"
0!
#775000
1"
1!
#776250
0"
0!
#777500
1"
1!
#778750
0"
0!
#780000
1"
1!
0*
#781250
0"
0!
#782500
1"
1!
#783750
0"
0!
#785000
1"
1!
#786250
0"
0!
#787500
1"
1!
#788750
0"
0!
#790000
1"
1!
r790 5
1*
#791250
0"
0!
#792500
1"
1!
#793750
0"
0!
#795000
1"
1!
#796250
0"
0!
#797500
1"
1!
#798750
0"
0!
#800000
1"
1!
0*
#801250
0"
0!
#802500
1"
1!
#803750
0"
0!
#805000
1"
1!
#806250
0"
0!
#807500
1"
1!
#808750
0"
0!
#810000
1"
1!
r810 5
1*
#811250
0"
0!
#812500
1"
1!
#813750
0"
0!
#815000
1"
1!
#816250
0"
0!
#817500
1"
1!
#818750
0"
0!
#820000
1"
1!
0*
#821250
0"
0!
#822500
1"
1!
#823750
0"
0!
#825000
1"
1!
#826250
0"
0!
#827500
1"
1!
#828750
0"
0!
#830000
1"
1!
r830 5
1*
#831250
0"
0!
#832500
1"
1!
#833750
0"
0!
#835000
1"
1!
#836250
0"
0!
#837500
1"
1!
#838750
0"
0!
#840000
1"
1!
0*
#841250
0"
0!
#842500
1"
1!
#843750
0"
0!
#845000
1"
1!
#846250
0"
0!
#847500
1"
1!
#848750
0"
0!
#850000
1"
1!
r850 5
1*
#851250
0"
0!
#852500
1"
1!
#853750
0"
0!
#855000
1"
1!
#856250
0"
0!
#857500
1"
1!
#858750
0"
0!
#860000
1"
1!
0*
#861250
0"
0!
#862500
1"
1!
#863750
0"
0!
#865000
1"
1!
#866250
0"
0!
#867500
1"
1!
#868750
0"
0!
#870000
1"
1!
r870 5
1*
#871250
0"
0!
#872500
1"
1!
#873750
0"
0!
#875000
1"
1!
#876250
0"
0!
#877500
1"
1!
#878750
0"
0!
#880000
1"
1!
0*
#881250
0"
0!
#882500
1"
1!
#883750
0"
0!
#885000
1"
1!
#886250
0"
0!
#887500
1"
1!
#888750
0"
0!
#890000
1"
1!
r890 5
1*
#891250
0"
0!
#892500
1"
1!
#893750
0"
0!
#895000
1"
1!
#896250
0"
0!
#897500
1"
1!
#898750
0"
0!
#900000
1"
1!
0*
#901250
0"
0!
#902500
1"
1!
#903750
0"
0!
#905000
1"
1!
#906250
0"
0!
#907500
1"
1!
#908750
0"
0!
#910000
1"
1!
r910 5
1*
#911250
0"
0!
#912500
1"
1!
#913750
0"
0!
#915000
1"
1!
#916250
0"
0!
#917500
1"
1!
#918750
0"
0!
#920000
1"
1!
0*
#921250
0"
0!
#922500
1"
1!
#923750
0"
0!
#925000
1"
1!
#926250
0"
0!
#927500
1"
1!
#928750
0"
0!
#930000
1"
1!
r930 5
1*
#931250
0"
0!
#932500
1"
1!
#933750
0"
0!
#935000
1"
1!
#936250
0"
0!
#937500
1"
1!
#938750
0"
0!
#940000
1"
1!
0*
#941250
0"
0!
#942500
1"
1!
#943750
0"
0!
#945000
1"
1!
#946250
0"
0!
#947500
1"
1!
#948750
0"
0!
#950000
1"
1!
r950 5
1*
#951250
0"
0!
#952500
1"
1!
#953750
0"
0!
#955000
1"
1!
#956250
0"
0!
#957500
1"
1!
#958750
0"
0!
#960000
1"
1!
0*
#961250
0"
0!
#962500
1"
1!
#963750
0"
0!
#965000
1"
1!
#966250
0"
0!
#967500
1"
1!
#968750
0"
0!
#970000
1"
1!
r970 5
1*
#971250
0"
0!
#972500
1"
1!
#973750
0"
0!
#975000
1"
1!
#976250
0"
0!
#977500
1"
1!
#978750
0"
0!
#980000
1"
1!
0*
#981250
0"
0!
#982500
1"
1!
#983750
0"
0!
#985000
1"
1!
#986250
0"
0!
#987500
1"
1!
#988750
0"
0!
#990000
1"
1!
r990 5
1*
#991250
0"
0!
#992500
1"
1!
#993750
0"
0!
#995000
1"
1!
#996250
0"
0!
#997500
1"
1!
#998750
0"
0!
#1000000
1"
1!
0*
#1001250
0"
0!
#1002500
1"
1!
#1003750
0"
0!
#1005000
1"
1!
#1006250
0"
0!
#1007500
1"
1!
#1008750
0"
0!
#1010000
1"
1!
r1010 5
1*
#1011250
0"
0!
#1012500
1"
1!
#1013750
0"
0!
#1015000
1"
1!
#1016250
0"
0!
#1017500
1"
1!
#1018750
0"
0!
#1020000
1"
1!
0*
#1021250
0"
0!
#1022500
1"
1!
#1023750
0"
0!
#1025000
1"
1!
#1026250
0"
0!
#1027500
1"
1!
#1028750
0"
0!
#1030000
1"
1!
r1030 5
1*
#1031250
0"
0!
#1032500
1"
1!
#1033750
0"
0!
#1035000
1"
1!
#1036250
0"
0!
#1037500
1"
1!
#1038750
0"
0!
#1040000
1"
1!
0*
#1041250
0"
0!
#1042500
1"
1!
#1043750
0"
0!
#1045000
1"
1!
#1046250
0"
0!
#1047500
1"
1!
#1048750
0"
0!
#1050000
1"
1!
r1050 5
1*
#1051250
0"
0!
#1052500
1"
1!
#1053750
0"
0!
#1055000
1"
1!
#1056250
0"
0!
#1057500
1"
1!
#1058750
0"
0!
#1060000
1"
1!
0*
#1061250
0"
0!
#1062500
1"
1!
#1063750
0"
0!
#1065000
1"
1!
#1066250
0"
0!
#1067500
1"
1!
#1068750
0"
0!
#1070000
1"
1!
r1070 5
1*
#1071250
0"
0!
#1072500
1"
1!
#1073750
0"
0!
#1075000
1"
1!
#1076250
0"
0!
#1077500
1"
1!
#1078750
0"
0!
#1080000
1"
1!
0*
#1081250
0"
0!
#1082500
1"
1!
#1083750
0"
0!
#1085000
1"
1!
#1086250
0"
0!
#1087500
1"
1!
#1088750
0"
0!
#1090000
1"
1!
r1090 5
1*
#1091250
0"
0!
#1092500
1"
1!
#1093750
0"
0!
#1095000
1"
1!
#1096250
0"
0!
#1097500
1"
1!
#1098750
0"
0!
#1100000
1"
1!
0*
#1101250
0"
0!
#1102500
1"
1!
#1103750
0"
0!
#1105000
1"
1!
#1106250
0"
0!
#1107500
1"
1!
#1108750
0"
0!
#1110000
1"
1!
r1110 5
1*
#1111250
0"
0!
#1112500
1"
1!
#1113750
0"
0!
#1115000
1"
1!
#1116250
0"
0!
#1117500
1"
1!
#1118750
0"
0!
#1120000
1"
1!
0*
#1121250
0"
0!
#1122500
1"
1!
#1123750
0"
0!
#1125000
1"
1!
#1126250
0"
0!
#1127500
1"
1!
#1128750
0"
0!
#1130000
1"
1!
r1130 5
1*
